<?xml version="1.0" encoding="UTF-8" standalone="no"?>
<svg width="9px" height="9px" viewBox="0 0 9 9" version="1.1" xmlns="http://www.w3.org/2000/svg" xmlns:xlink="http://www.w3.org/1999/xlink">

    <g id="home-Screen" stroke="none" stroke-width="1" fill="none" fill-rule="evenodd">
        <g id="Donor&gt;Registration" transform="translate(-695.000000, -217.000000)" stroke="#B5B5B5">
            <g id="Group" transform="translate(681.000000, 218.000000)">
                <circle id="pager" cx="18.5" cy="3.5" r="3.5"></circle>
            </g>
        </g>
    </g>
</svg>