<?xml version="1.0" encoding="utf-8"?>
<!-- Generator: Adobe Illustrator 16.0.0, SVG Export Plug-In . SVG Version: 6.00 Build 0)  -->
<!DOCTYPE svg PUBLIC "-//W3C//DTD SVG 1.1//EN" "http://www.w3.org/Graphics/SVG/1.1/DTD/svg11.dtd">
<svg version="1.1" id="Layer_1" xmlns="http://www.w3.org/2000/svg" xmlns:xlink="http://www.w3.org/1999/xlink" x="0px" y="0px"
	 width="35px" height="35px" viewBox="0 0 35 35" enable-background="new 0 0 35 35" xml:space="preserve">
<title>FFE80B7C-7B9C-45BC-A72F-577A8D92C90B</title>
<desc>Created with sketchtool.</desc>
<g id="home-Screen">
	<g id="create-campaign_x3E_design-campagin-voucher" transform="translate(-585.000000, -598.000000)">
		<g id="Group-2" transform="translate(551.000000, 578.000000)">
			<g id="Group" transform="translate(13.000000, 0.000000)">
				<g id="paint-bucket-2" transform="translate(21.000000, 20.000000)">
					<g id="Capa_1">
						<path id="Shape" fill="#006FFF" d="M34.049,30.308c-0.177-0.604-0.66-1.048-1.436-1.318c-0.438-0.152-0.932-0.248-1.457-0.35
							c-0.426-0.083-0.863-0.167-1.221-0.277c-0.043-0.013-0.084-0.026-0.12-0.04c0.091-0.094,0.187-0.188,0.267-0.268
							c0.376-0.374,0.766-0.761,1.033-1.203c0.498-0.821,0.44-1.691-0.153-2.328c0,0-0.564-0.641-1.649-0.641
							c-0.304,0-0.62,0.054-0.939,0.161c0.01-0.58,0.005-1.141-0.014-1.665c-0.1-2.732-0.549-4.435-1.416-5.359
							c0.002-2.09-0.828-5.167-2.221-8.231c-2.115-4.657-4.906-8.037-6.633-8.037c-0.163,0-0.314,0.032-0.452,0.095
							c-0.017,0.007-0.034,0.016-0.052,0.026l-0.854,0.391c-0.623-0.217-1.868-0.626-3.207-0.922C12.496,0.115,11.605,0,10.878,0
							C9.64,0,8.832,0.318,8.405,0.974c-0.221,0.34-0.438,0.917-0.213,1.73C8.237,2.868,8.3,3.039,8.379,3.212
							c0.866,1.906,4.831,5.062,9.224,7.342c0.096,0.05,0.208,0.064,0.313,0.04c0.088-0.021,0.179-0.03,0.27-0.03
							c0.475,0,0.908,0.28,1.105,0.713c0.135,0.297,0.146,0.628,0.033,0.934c-0.113,0.305-0.339,0.548-0.635,0.683
							c-0.16,0.073-0.329,0.11-0.504,0.11c-0.475,0-0.909-0.28-1.106-0.714c-0.042-0.093-0.073-0.191-0.09-0.291
							c-0.024-0.142-0.114-0.263-0.241-0.329c-3.498-1.819-6.71-4.111-8.594-6.131C8.02,5.393,7.808,5.351,7.629,5.433l-7.36,3.371
							C0.085,8.888-0.022,9.082,0.004,9.283c0.135,1.031,0.742,4.763,2.895,9.5c2.153,4.738,4.563,7.645,5.25,8.422
							c0.134,0.152,0.35,0.197,0.534,0.113l15.339-7.023c0.019,0.142,0.038,0.287,0.06,0.438c0.131,0.973,0.281,2.074,0.285,2.98
							c0.002,0.637-0.068,0.992-0.129,1.177l0,0c-0.181-0.02-0.404-0.058-0.621-0.094c-0.439-0.073-0.895-0.149-1.332-0.149
							c-1.063,0-1.565,0.492-1.799,0.904c-0.549,0.97-0.004,2.16,0.533,3.09c-0.301,0.084-0.715,0.156-0.988,0.204
							c-0.411,0.072-0.836,0.146-1.204,0.263c-0.688,0.22-1.137,0.596-1.333,1.119c-0.153,0.41-0.206,1.061,0.412,1.827
							c0.808,1.001,1.972,1.757,3.46,2.247c1.23,0.405,2.686,0.619,4.209,0.619c1.469,0,2.938-0.191,4.251-0.555
							c0.978-0.27,2.327-0.769,3.208-1.611C33.403,32.401,34.386,31.463,34.049,30.308L34.049,30.308z M22.758,29.211
							c0.105-0.244,0.055-0.546-0.16-0.924c-0.516-0.912-0.692-1.531-0.525-1.84c0.036-0.066,0.145-0.269,0.658-0.269
							c0.294,0,0.646,0.062,0.988,0.122c0.332,0.059,0.645,0.113,0.899,0.113c0.136,0,0.241-0.016,0.323-0.048
							c0.053-0.021,0.102-0.054,0.143-0.096c0.854-0.893,0.656-3.4,0.381-5.894c-0.098-0.873-0.184-1.571-0.092-1.711
							c0.021-0.023,0.043-0.034,0.064-0.031c0.793,0.254,1.296,1.727,1.453,4.257c0.066,1.069,0.059,2.106,0.04,2.789
							c-0.005,0.161,0.079,0.31,0.215,0.385c0.136,0.074,0.3,0.061,0.423-0.034c0.322-0.252,0.807-0.55,1.287-0.55
							c0.251,0,0.471,0.077,0.672,0.235l0,0c0.361,0.406,0.051,0.868-0.738,1.689c-0.54,0.561-0.784,0.858-0.805,1.139
							c-0.006,0.065,0.004,0.131,0.028,0.191c0.257,0.664,1.271,0.869,2.252,1.068c0.819,0.166,1.594,0.322,1.714,0.751
							c0.076,0.275-0.121,0.644-0.603,1.126c-0.984,0.984-3.36,1.673-5.778,1.673c-2.649,0-4.789-0.805-5.871-2.208
							c-0.182-0.236-0.246-0.435-0.191-0.588c0.116-0.326,0.744-0.441,1.41-0.563C21.881,29.824,22.559,29.668,22.758,29.211
							L22.758,29.211z M20.891,10.544c-0.857-1.887-1.502-3.82-1.817-5.443c-0.109-0.565-0.178-1.083-0.202-1.542l0,0
							c0.328,0.319,0.674,0.711,1.027,1.164c1.014,1.303,2.045,3.06,2.902,4.946s1.503,3.819,1.818,5.443
							c0.109,0.564,0.178,1.083,0.202,1.542c-0.328-0.319-0.674-0.71-1.026-1.164C22.779,14.187,21.748,12.431,20.891,10.544
							L20.891,10.544z M9.558,1.729C9.626,1.624,9.889,1.38,10.859,1.38c0.635,0,1.428,0.104,2.358,0.309
							c0.513,0.113,1.068,0.257,1.652,0.429l-4.224,1.935C10.161,3.53,9.82,3.058,9.634,2.647C9.584,2.539,9.546,2.434,9.519,2.335
							C9.448,2.078,9.46,1.879,9.558,1.729L9.558,1.729z"/>
					</g>
				</g>
			</g>
		</g>
	</g>
</g>
</svg>
