<?xml version="1.0" encoding="utf-8"?>
<!-- Generator: Adobe Illustrator 16.0.0, SVG Export Plug-In . SVG Version: 6.00 Build 0)  -->
<!DOCTYPE svg PUBLIC "-//W3C//DTD SVG 1.1//EN" "http://www.w3.org/Graphics/SVG/1.1/DTD/svg11.dtd">
<svg version="1.1" id="Layer_1" xmlns="http://www.w3.org/2000/svg" xmlns:xlink="http://www.w3.org/1999/xlink" x="0px" y="0px"
	 width="40px" height="33px" viewBox="0 0 40 33" enable-background="new 0 0 40 33" xml:space="preserve">
<title>EADACCF7-2D8C-48C5-AE94-025198350B7E</title>
<desc>Created with sketchtool.</desc>
<g id="home-Screen">
	<g id="create-campaign_x3E_design-campagin-voucher" transform="translate(-833.000000, -598.000000)">
		<g id="Group-5" transform="translate(815.000000, 578.000000)">
			<g id="picture-frame" transform="translate(18.000000, 20.000000)">
				<g id="Capa_1">
					<g id="Group">
						<path id="Shape" fill="#006FFF" d="M38.947,0.002H1.053C0.471,0.002,0,0.474,0,1.055v30.521c0,0.582,0.471,1.053,1.053,1.053
							h37.895c0.582,0,1.053-0.471,1.053-1.053V1.055C40,0.474,39.529,0.002,38.947,0.002L38.947,0.002z M36.03,28.659H3.97V3.973
							h32.06V28.659L36.03,28.659z"/>
						<path id="Shape_1_" fill="#006FFF" d="M7.953,26.137h24.094c0.539,0,0.977-0.437,0.977-0.976v-5.595
							c0-0.256-0.1-0.5-0.278-0.682l-2.681-2.75c-0.366-0.375-0.962-0.394-1.352-0.044l-5.055,4.537l-8.73-7.922
							c-0.353-0.32-0.884-0.339-1.258-0.045c-1.229,0.965-3.985,3.127-6.319,4.957c-0.236,0.185-0.374,0.468-0.374,0.769v6.774
							C6.977,25.7,7.414,26.137,7.953,26.137L7.953,26.137z"/>
						<path id="Shape_2_" fill="#006FFF" d="M23.958,17.139c1.209,0,2.192-0.983,2.192-2.191c0-1.209-0.983-2.192-2.192-2.192
							c-1.208,0-2.192,0.983-2.192,2.192C21.766,16.156,22.75,17.139,23.958,17.139L23.958,17.139z"/>
					</g>
				</g>
			</g>
		</g>
	</g>
</g>
</svg>
